…
    numdat

    ## # A tibble: 182 × 5
    ##    species          decision type    estimate      value
    ##    <chr>            <fct>    <chr>   <chr>         <dbl>
    ##  1 Alpine tree-frog Public   Benefit lower         25000
    ##  2 Alpine tree-frog Public   Benefit upper        400000
    ##  3 Alpine tree-frog Public   Benefit most.likely  150000
    ##  4 Alpine tree-frog Public   Benefit pconf            90
    ##  5 Alpine tree-frog Public   Cost    lower             0
    ##  6 Alpine tree-frog Public   Cost    upper       1000000
    ##  7 Alpine tree-frog Public   Cost    most.likely  100000
    ##  8 Alpine tree-frog Public   Cost    pconf            90
    ##  9 Alpine tree-frog Part     Benefit lower         25000
    ## 10 Alpine tree-frog Part     Benefit upper        400000
    ## # ℹ 172 more rows
…
    cost_benefit

    ## # A tibble: 42 × 8
    ##    species          decision type    lower   upper most.likely pconf dist       
    ##    <chr>            <fct>    <chr>   <dbl>   <dbl>       <dbl> <dbl> <chr>      
    ##  1 Alpine tree-frog Public   Benefit 25000  400000      150000   0.9 lognormal  
    ##  2 Alpine tree-frog Public   Cost        0 1000000      100000   0.9 lognormal  
    ##  3 Alpine tree-frog Part     Benefit 25000  400000      100000   0.9 lognormal  
    ##  4 Alpine tree-frog Part     Cost        0  200000       50000   0.9 lognormal  
    ##  5 Alpine tree-frog Secret   Benefit 25000  300000       25000   0.9 triangular 
    ##  6 Alpine tree-frog Secret   Cost        0  200000           0   0.9 exponential
    ##  7 Giant Ibis       Public   Benefit  1000   20000        2000   0.5 lognormal  
    ##  8 Giant Ibis       Public   Cost        0    2000           0   0.5 exponential
    ##  9 Giant Ibis       Part     Benefit     0   10000           0   0.5 exponential
    ## 10 Giant Ibis       Part     Cost        0    2000           0   0.8 exponential
    ## # ℹ 32 more rows
…
    cost_benefit_lognormal

    ## # A tibble: 29 × 9
    ##    species          decision type    lower   upper most.likely pconf dist  value
    ##    <chr>            <fct>    <chr>   <dbl>   <dbl>       <dbl> <dbl> <chr> <dbl>
    ##  1 Alpine tree-frog Public   Benefit 25000  400000      150000   0.9 logn… 0.539
    ##  2 Alpine tree-frog Public   Cost        0 1000000      100000   0.9 logn… 1.01 
    ##  3 Alpine tree-frog Part     Benefit 25000  400000      100000   0.9 logn… 0.694
    ##  4 Alpine tree-frog Part     Cost        0  200000       50000   0.9 logn… 0.700
    ##  5 Giant Ibis       Public   Benefit  1000   20000        2000   0.5 logn… 1.49 
    ##  6 Red Handfish     Public   Benefit     0 2000000      250000   0.5 logn… 1.44 
    ##  7 Red Handfish     Public   Cost    20000 2000000      500000   0.5 logn… 1.18 
    ##  8 Red Handfish     Part     Benefit     0 2000000      250000   0.5 logn… 1.44 
    ##  9 Red Handfish     Part     Cost        0  500000       20000   0.5 logn… 1.79 
    ## 10 Red Handfish     Secret   Benefit     0  500000       75000   0.5 logn… 1.38 
    ## # ℹ 19 more rows
…
    cost_benefit_all

    ## # A tibble: 42 × 10
    ##    species      decision type  lower upper most.likely pconf dist  value samples
    ##    <chr>        <fct>    <chr> <dbl> <dbl>       <dbl> <dbl> <chr> <dbl> <list> 
    ##  1 Alpine tree… Public   Bene… 25000   4e5      150000   0.9 logn… 0.539 <dbl>  
    ##  2 Alpine tree… Public   Cost      0   1e6      100000   0.9 logn… 1.01  <dbl>  
    ##  3 Alpine tree… Part     Bene… 25000   4e5      100000   0.9 logn… 0.694 <dbl>  
    ##  4 Alpine tree… Part     Cost      0   2e5       50000   0.9 logn… 0.700 <dbl>  
    ##  5 Giant Ibis   Public   Bene…  1000   2e4        2000   0.5 logn… 1.49  <dbl>  
    ##  6 Red Handfish Public   Bene…     0   2e6      250000   0.5 logn… 1.44  <dbl>  
    ##  7 Red Handfish Public   Cost  20000   2e6      500000   0.5 logn… 1.18  <dbl>  
    ##  8 Red Handfish Part     Bene…     0   2e6      250000   0.5 logn… 1.44  <dbl>  
    ##  9 Red Handfish Part     Cost      0   5e5       20000   0.5 logn… 1.79  <dbl>  
    ## 10 Red Handfish Secret   Bene…     0   5e5       75000   0.5 logn… 1.38  <dbl>  
    ## # ℹ 32 more rows
…
    distribution_table

    ## # A tibble: 42 × 14
    ##    species       decision type  lower most.likely upper pconf dist   sigma    mu
    ##    <chr>         <fct>    <chr> <dbl>       <dbl> <dbl> <dbl> <chr>  <dbl> <dbl>
    ##  1 Alpine tree-… Public   Bene… 25000      150000   4e5   0.9 logn…  0.539 12.2 
    ##  2 Alpine tree-… Public   Cost      0      100000   1e6   0.9 logn…  1.01  12.5 
    ##  3 Alpine tree-… Part     Bene… 25000      100000   4e5   0.9 logn…  0.694 12.0 
    ##  4 Alpine tree-… Part     Cost      0       50000   2e5   0.9 logn…  0.700 11.3 
    ##  5 Alpine tree-… Secret   Bene… 25000       25000   3e5   0.9 tria… NA     NA   
    ##  6 Alpine tree-… Secret   Cost      0           0   2e5   0.9 expo… NA     NA   
    ##  7 Giant Ibis    Public   Bene…  1000        2000   2e4   0.5 logn…  1.49   9.81
    ##  8 Giant Ibis    Public   Cost      0           0   2e3   0.5 expo… NA     NA   
    ##  9 Giant Ibis    Part     Bene…     0           0   1e4   0.5 expo… NA     NA   
    ## 10 Giant Ibis    Part     Cost      0           0   2e3   0.8 expo… NA     NA   
    ## # ℹ 32 more rows
    ## # ℹ 4 more variables: lambda <dbl>, a <dbl>, b <dbl>, c <dbl>
…
    ## Joining with `by = join_by(species)`
    ## Joining with `by = join_by(species, decision)`

    zeta_estimates

    ## # A tibble: 21,000 × 8
    ##    species          decision Benefit     Cost Cost_public    pd    id      zeta
    ##    <chr>            <fct>      <dbl>    <dbl>       <dbl> <dbl> <int>     <dbl>
    ##  1 Alpine tree-frog Public   249966.  743741.     743741.     1     1  -493774.
    ##  2 Alpine tree-frog Public   168485.   75283.      75283.     1     2    93202.
    ##  3 Alpine tree-frog Public   282430. 4141165.    4141165.     1     3 -3858735.
    ##  4 Alpine tree-frog Public    74165.  354584.     354584.     1     4  -280419.
    ##  5 Alpine tree-frog Public   335171.  197669.     197669.     1     5   137501.
    ##  6 Alpine tree-frog Public   380375.  823540.     823540.     1     6  -443165.
    ##  7 Alpine tree-frog Public   268571.   56734.      56734.     1     7   211837.
    ##  8 Alpine tree-frog Public   128029. 1162845.    1162845.     1     8 -1034816.
    ##  9 Alpine tree-frog Public   151016.  326812.     326812.     1     9  -175796.
    ## 10 Alpine tree-frog Public   429971.  119733.     119733.     1    10   310238.
    ## # ℹ 20,990 more rows
…
    colnames(zeta_ranges) <- zeta_estimates_minmax$species

    zeta_ranges <- zeta_ranges %>%
      as_tibble %>%
      pivot_longer(
        cols = everything(),
        names_to = "species",
        values_to = "value"
      ) %>%
      arrange(species, value)

    zeta_ranges

    ## # A tibble: 7,000 × 2
    ##    species               value
    ##    <chr>                 <dbl>
    ##  1 Alpine tree-frog -10771102.
    ##  2 Alpine tree-frog -10759324.
    ##  3 Alpine tree-frog -10747545.
    ##  4 Alpine tree-frog -10735766.
    ##  5 Alpine tree-frog -10723988.
    ##  6 Alpine tree-frog -10712209.
    ##  7 Alpine tree-frog -10700430.
    ##  8 Alpine tree-frog -10688651.
    ##  9 Alpine tree-frog -10676873.
    ## 10 Alpine tree-frog -10665094.
    ## # ℹ 6,990 more rows
…
    zeta_cd_wide

    ## # A tibble: 7,000 × 5
    ## # Rowwise: 
    ##    species               value Public  Part Secret
    ##    <chr>                 <dbl>  <dbl> <dbl>  <dbl>
    ##  1 Alpine tree-frog -10771102.  0.001     0      0
    ##  2 Alpine tree-frog -10759324.  0.001     0      0
    ##  3 Alpine tree-frog -10747545.  0.001     0      0
    ##  4 Alpine tree-frog -10735766.  0.001     0      0
    ##  5 Alpine tree-frog -10723988.  0.001     0      0
    ##  6 Alpine tree-frog -10712209.  0.001     0      0
    ##  7 Alpine tree-frog -10700430.  0.001     0      0
    ##  8 Alpine tree-frog -10688651.  0.001     0      0
    ##  9 Alpine tree-frog -10676873.  0.001     0      0
    ## 10 Alpine tree-frog -10665094.  0.001     0      0
    ## # ℹ 6,990 more rows
…
    zeta_dominance

    ## # A tibble: 21 × 5
    ##    species          dominant Part  Secret Public
    ##    <chr>            <chr>    <lgl> <lgl>  <lgl> 
    ##  1 Alpine tree-frog Public   FALSE FALSE  NA    
    ##  2 Alpine tree-frog Part     NA    TRUE   FALSE 
    ##  3 Alpine tree-frog Secret   FALSE NA     FALSE 
    ##  4 Giant Ibis       Public   FALSE FALSE  NA    
    ##  5 Giant Ibis       Part     NA    TRUE   FALSE 
    ##  6 Giant Ibis       Secret   FALSE NA     FALSE 
    ##  7 Red Handfish     Public   FALSE FALSE  NA    
    ##  8 Red Handfish     Part     NA    TRUE   FALSE 
    ##  9 Red Handfish     Secret   FALSE NA     FALSE 
    ## 10 Smooth Newt      Public   TRUE  TRUE   NA    
    ## # ℹ 11 more rows
…
    zeta_cd

    ## # A tibble: 21,000 × 4
    ##    species               value decision    cd
    ##    <chr>                 <dbl> <fct>    <dbl>
    ##  1 Alpine tree-frog -10771102. Public   0.001
    ##  2 Alpine tree-frog -10771102. Part     0    
    ##  3 Alpine tree-frog -10771102. Secret   0    
    ##  4 Alpine tree-frog -10759324. Public   0.001
    ##  5 Alpine tree-frog -10759324. Part     0    
    ##  6 Alpine tree-frog -10759324. Secret   0    
    ##  7 Alpine tree-frog -10747545. Public   0.001
    ##  8 Alpine tree-frog -10747545. Part     0    
    ##  9 Alpine tree-frog -10747545. Secret   0    
    ## 10 Alpine tree-frog -10735766. Public   0.001
    ## # ℹ 20,990 more rows
…
    best_option

    ## # A tibble: 7,000 × 13
    ##    species             id    Public     Part  Secret zetamax best  zetamin worst
    ##    <chr>            <int>     <dbl>    <dbl>   <dbl>   <dbl> <chr>   <dbl> <chr>
    ##  1 Alpine tree-frog     1  -493774.  -3.84e5 -5.98e5 -3.84e5 Part  -5.98e5 Secr…
    ##  2 Alpine tree-frog     2    93202.   4.37e5  1.98e5  4.37e5 Part   9.32e4 Publ…
    ##  3 Alpine tree-frog     3 -3858735.  -2.64e6 -3.66e6 -2.64e6 Part  -3.86e6 Publ…
    ##  4 Alpine tree-frog     4  -280419.  -2.35e5 -2.41e5 -2.35e5 Part  -2.80e5 Publ…
    ##  5 Alpine tree-frog     5   137501.   2.67e5  1.33e4  2.67e5 Part   1.33e4 Secr…
    ##  6 Alpine tree-frog     6  -443165.  -5.25e5 -7.17e5 -4.43e5 Publ… -7.17e5 Secr…
    ##  7 Alpine tree-frog     7   211837.   4.93e4 -1.14e4  2.12e5 Publ… -1.14e4 Secr…
    ##  8 Alpine tree-frog     8 -1034816.  -5.91e5 -7.84e5 -5.91e5 Part  -1.03e6 Publ…
    ##  9 Alpine tree-frog     9  -175796.  -1.05e5 -2.54e5 -1.05e5 Part  -2.54e5 Secr…
    ## 10 Alpine tree-frog    10   310238.   6.01e4 -5.02e4  3.10e5 Publ… -5.02e4 Secr…
    ## # ℹ 6,990 more rows
    ## # ℹ 4 more variables: max_positive <dbl>, pub_positive <dbl>,
    ## #   par_positive <dbl>, sec_positive <dbl>
…
    ## `summarise()` has grouped output by 'species'. You can override using the
    ## `.groups` argument.

    best_option_proportion

    ## # A tibble: 21 × 4
    ## # Groups:   species [7]
    ##    species          best       n prop.best
    ##    <chr>            <fct>  <int>     <dbl>
    ##  1 Alpine tree-frog Part     550     0.55 
    ##  2 Alpine tree-frog Public   334     0.334
    ##  3 Alpine tree-frog Secret   116     0.116
    ##  4 Giant Ibis       Part     305     0.305
    ##  5 Giant Ibis       Public   598     0.598
    ##  6 Giant Ibis       Secret    97     0.097
    ##  7 Red Handfish     Part     498     0.498
    ##  8 Red Handfish     Public   333     0.333
    ##  9 Red Handfish     Secret   169     0.169
    ## 10 Smooth Newt      Part     141     0.141
    ## # ℹ 11 more rows
…
    ## `summarise()` has grouped output by 'species'. You can override using the
    ## `.groups` argument.

    worst_option_proportion

    ## # A tibble: 21 × 4
    ## # Groups:   species [7]
    ##    species          worst      n prop.worst
    ##    <chr>            <fct>  <int>      <dbl>
    ##  1 Alpine tree-frog Part     160      0.16 
    ##  2 Alpine tree-frog Public   303      0.303
    ##  3 Alpine tree-frog Secret   537      0.537
    ##  4 Giant Ibis       Part     262      0.262
    ##  5 Giant Ibis       Public   146      0.146
    ##  6 Giant Ibis       Secret   592      0.592
    ##  7 Red Handfish     Part     187      0.187
    ##  8 Red Handfish     Public   375      0.375
    ##  9 Red Handfish     Secret   438      0.438
    ## 10 Smooth Newt      Part     462      0.462
    ## # ℹ 11 more rows
…
    net_benefit_plot

    ## # A tibble: 28 × 3
    ##    species          Decision `Proportion positive`
    ##    <chr>            <fct>                    <dbl>
    ##  1 Alpine tree-frog Best                     0.527
    ##  2 Alpine tree-frog Public                   0.377
    ##  3 Alpine tree-frog Part                     0.386
    ##  4 Alpine tree-frog Secret                   0.221
    ##  5 Giant Ibis       Best                     0.984
    ##  6 Giant Ibis       Public                   0.903
    ##  7 Giant Ibis       Part                     0.836
    ##  8 Giant Ibis       Secret                   0.7  
    ##  9 Red Handfish     Best                     0.778
    ## 10 Red Handfish     Public                   0.492
    ## # ℹ 18 more rows
…
      }
    )

    text_results <- tibble(
      question = colnames(text_dat),
      sum_responses = sum_resp,
      percentage_responses = perc_resp
    )

    text_results

    ## # A tibble: 93 × 3
    ##    question                       sum_responses percentage_responses
    ##    <chr>                                  <dbl>                <dbl>
    ##  1 consent_sp_id                             NA                 NA  
    ##  2 species                                   NA                 NA  
    ##  3 consent_sp_loc                            NA                 NA  
    ##  4 sp_loc                                    NA                 NA  
    ##  5 currency                                  NA                 NA  
    ##  6 q4.1.1                                    NA                 NA  
    ##  7 q4.1.1_funding                             8                100  
    ##  8 q4.1.1_awareness-publicsupport             5                 62.5
    ##  9 q4.1.1_protection-recovery                 4                 50  
    ## 10 q4.1.2                                    NA                 NA  
    ## # ℹ 83 more rows
…
    all_results

    ## # A tibble: 21 × 5
    ##    cost_benefit group    response             sum_responses percentage_responses
    ##    <chr>        <chr>    <chr>                        <dbl>                <dbl>
    ##  1 benefits     kind     "Funding"                        8                100  
    ##  2 benefits     kind     "Awareness &\npubli…             7                 87.5
    ##  3 benefits     kind     "Protection &\nreco…             6                 75  
    ##  4 benefits     entities "Species"                        3                 37.5
    ##  5 benefits     entities "Individual\npeople"             5                 62.5
    ##  6 benefits     entities "Researchers &\nins…             5                 62.5
    ##  7 benefits     entities "Government"                     7                 87.5
    ##  8 benefits     entities "Business"                       3                 37.5
    ##  9 benefits     entities "NGOs"                           6                 75  
    ## 10 benefits     entities "General\npublic"                4                 50  
    ## # ℹ 11 more rows
…
